<svg xmlns="http://www.w3.org/2000/svg" width="1643" height="7541" viewBox="0 0 1643 7541">
  <g id="privacyPolicy" transform="translate(-141 -188)">
    <text id="Privacy_policy_" data-name="Privacy policy " transform="translate(141 211)" fill="#099670" font-size="25" font-family="Rubik-Medium, Rubik" font-weight="500"><tspan x="0" y="0">Privacy policy </tspan></text>
    <text id="Automatic_collection_of_information" data-name="Automatic collection of information" transform="translate(141 553)" fill="#0f0f0f" font-size="25" font-family="Rubik-Medium, Rubik" font-weight="500"><tspan x="0" y="0">Automatic collection of information</tspan></text>
    <text id="Collection_of_personal_information" data-name="Collection of personal information" transform="translate(141 927)" fill="#0f0f0f" font-size="25" font-family="Rubik-Medium, Rubik" font-weight="500"><tspan x="0" y="0">Collection of personal information</tspan></text>
    <text id="Managing_personal_information" data-name="Managing personal information" transform="translate(141 1501)" fill="#0f0f0f" font-size="25" font-family="Rubik-Medium, Rubik" font-weight="500"><tspan x="0" y="0">Managing personal information</tspan></text>
    <text id="Storing_personal_information" data-name="Storing personal information" transform="translate(141 1795)" fill="#0f0f0f" font-size="25" font-family="Rubik-Medium, Rubik" font-weight="500"><tspan x="0" y="0">Storing personal information</tspan></text>
    <text id="Use_and_processing_of_collected_information" data-name="Use and processing of collected information" transform="translate(141 2089)" fill="#0f0f0f" font-size="25" font-family="Rubik-Medium, Rubik" font-weight="500"><tspan x="0" y="0">Use and processing of collected information</tspan></text>
    <text id="Information_transfer_and_storage" data-name="Information transfer and storage" transform="translate(141 3103)" fill="#0f0f0f" font-size="25" font-family="Rubik-Medium, Rubik" font-weight="500"><tspan x="0" y="0">Information transfer and storage</tspan></text>
    <text id="The_rights_of_users" data-name="The rights of users" transform="translate(141 3357)" fill="#0f0f0f" font-size="25" font-family="Rubik-Medium, Rubik" font-weight="500"><tspan x="0" y="0">The rights of users</tspan></text>
    <text id="The_right_to_object_to_processing" data-name="The right to object to processing" transform="translate(141 3851)" fill="#0f0f0f" font-size="25" font-family="Rubik-Medium, Rubik" font-weight="500"><tspan x="0" y="0">The right to object to processing</tspan></text>
    <text id="How_to_exercise_these_rights" data-name="How to exercise these rights" transform="translate(141 4145)" fill="#0f0f0f" font-size="25" font-family="Rubik-Medium, Rubik" font-weight="500"><tspan x="0" y="0">How to exercise these rights</tspan></text>
    <text id="California_privacy_rights" data-name="California privacy rights" transform="translate(141 4359)" fill="#0f0f0f" font-size="25" font-family="Rubik-Medium, Rubik" font-weight="500"><tspan x="0" y="0">California privacy rights</tspan></text>
    <text id="Newsletters" transform="translate(141 4693)" fill="#0f0f0f" font-size="25" font-family="Rubik-Medium, Rubik" font-weight="500"><tspan x="0" y="0">Newsletters</tspan></text>
    <text id="Cookies" transform="translate(141 5107)" fill="#0f0f0f" font-size="25" font-family="Rubik-Medium, Rubik" font-weight="500"><tspan x="0" y="0">Cookies</tspan></text>
    <text id="Do_Not_Track_signals" data-name="Do Not Track signals" transform="translate(141 5481)" fill="#0f0f0f" font-size="25" font-family="Rubik-Medium, Rubik" font-weight="500"><tspan x="0" y="0">Do Not Track signals</tspan></text>
    <text id="Links_to_other_websites" data-name="Links to other websites" transform="translate(141 5815)" fill="#0f0f0f" font-size="25" font-family="Rubik-Medium, Rubik" font-weight="500"><tspan x="0" y="0">Links to other websites</tspan></text>
    <text id="Information_security" data-name="Information security" transform="translate(141 6029)" fill="#0f0f0f" font-size="25" font-family="Rubik-Medium, Rubik" font-weight="500"><tspan x="0" y="0">Information security</tspan></text>
    <text id="Data_breach" data-name="Data breach" transform="translate(141 6403)" fill="#0f0f0f" font-size="25" font-family="Rubik-Medium, Rubik" font-weight="500"><tspan x="0" y="0">Data breach</tspan></text>
    <text id="Legal_disclosure" data-name="Legal disclosure" transform="translate(141 6737)" fill="#0f0f0f" font-size="25" font-family="Rubik-Medium, Rubik" font-weight="500"><tspan x="0" y="0">Legal disclosure</tspan></text>
    <text id="Changes_and_amendments" data-name="Changes and amendments" transform="translate(141 6951)" fill="#0f0f0f" font-size="25" font-family="Rubik-Medium, Rubik" font-weight="500"><tspan x="0" y="0">Changes and amendments</tspan></text>
    <text id="Acceptance_of_this_policy" data-name="Acceptance of this policy" transform="translate(141 7325)" fill="#0f0f0f" font-size="25" font-family="Rubik-Medium, Rubik" font-weight="500"><tspan x="0" y="0">Acceptance of this policy</tspan></text>
    <text id="Contacting_us" data-name="Contacting us" transform="translate(141 7539)" fill="#0f0f0f" font-size="25" font-family="Rubik-Medium, Rubik" font-weight="500"><tspan x="0" y="0">Contacting us</tspan></text>
    <text id="This_privacy_policy_Policy_describes_how_Website_Operator_Website_Operator_we_us_or_our_collects_protects_and_uses_the_personally_identifiable_information_Personal_Information_you_User_you_or_your_may_provide_on_the_expedition" data-name="This privacy policy (“Policy”) describes how Website Operator (“Website Operator”, “we”, “us” or “our”) collects, protects and uses the personally identifiable information (“Personal Information”) you (“User”, “you” or “your”) may provide on the expedition" transform="translate(141 265)" fill="#0f0f0f" font-size="20" font-family="Rubik-Regular, Rubik"><tspan x="0" y="19">This privacy policy (“Policy”) describes how Website Operator (“Website Operator”, “we”, “us” or “our”) collects, protects and uses the personally identifiable information (“Personal </tspan><tspan x="0" y="59">Information”) you (“User”, “you” or “your”) may provide on the </tspan><tspan y="59" fill="#0b8fff">expeditionsconnect.com</tspan><tspan y="59" xml:space="preserve"> website and any of its products or services (collectively, “Website” or “Services”).</tspan><tspan x="0" y="99"></tspan><tspan x="0" y="139">It also describes the choices available to you regarding our use of your Personal Information and how you can access and update this information. This Policy does not apply to </tspan><tspan x="0" y="179">the practices of companies that we do not own or control, or to individuals that we do not employ or manage.</tspan></text>
    <text id="When_you_visit_the_Website_our_servers_automatically_record_information_that_your_browser_sends._This_data_may_include_information_such_as_your_device_s_IP_address_browser_type_and_version_operating_system_type_and_version_language_preferences_or_the_we" data-name="When you visit the Website our servers automatically record information that your browser sends. This data may include information such as your device’s IP address, browser type and version, operating system type and version, language preferences or the we" transform="translate(141 589)" fill="#0f0f0f" font-size="20" font-family="Rubik-Regular, Rubik"><tspan x="0" y="19">When you visit the Website our servers automatically record information that your browser sends. This data may include information such as your device’s IP address, browser </tspan><tspan x="0" y="59">type and version, operating system type and version, language preferences or the webpage you were visiting before you came to our Website, pages of our Website that you visit, </tspan><tspan x="0" y="99">the time spent on those pages, information you search for on our Website, access times and dates, and other statistics.</tspan><tspan x="0" y="139"></tspan><tspan x="0" y="179">Information collected automatically is used only to identify potential cases of abuse and establish statistical information regarding Website usage. This statistical information is </tspan><tspan x="0" y="219">not otherwise aggregated in such a way that would identify any particular user of the system.</tspan></text>
    <text id="You_can_visit_the_Website_without_telling_us_who_you_are_or_revealing_any_information_by_which_someone_could_identify_you_as_a_specific_identifiable_individual._If_however_you_wish_to_use_some_of_the_Website_s_features_you_will_be_asked_to_provide_cert" data-name="You can visit the Website without telling us who you are or revealing any information by which someone could identify you as a specific, identifiable individual. If, however, you wish to use some of the Website’s features, you will be asked to provide cert" transform="translate(141 963)" fill="#0f0f0f" font-size="20" font-family="Rubik-Regular, Rubik"><tspan x="0" y="19">You can visit the Website without telling us who you are or revealing any information by which someone could identify you as a specific, identifiable individual. If, however, you </tspan><tspan x="0" y="59">wish to use some of the Website’s features, you will be asked to provide certain Personal Information (for example, your name and e-mail address). We receive and store any </tspan><tspan x="0" y="99">information you knowingly provide to us when you create an account, publish content, or fill any online forms on the Website. When required, this information may include the </tspan><tspan x="0" y="139">following:</tspan><tspan x="0" y="179"></tspan><tspan x="0" y="219">Personal details such as name, country of residence, etc.</tspan><tspan x="0" y="259">Contact information such as email address, address, etc.</tspan><tspan x="0" y="299">Any other materials you willingly submit to us such as articles, images, feedback, etc.</tspan><tspan x="0" y="339"></tspan><tspan x="0" y="379">You can choose not to provide us with your Personal Information, but then you may not be able to take advantage of some of the Website’s features. Users who are uncertain </tspan><tspan x="0" y="419">about what information is mandatory are welcome to contact us.</tspan></text>
    <text id="You_are_able_to_delete_certain_Personal_Information_we_have_about_you._The_Personal_Information_you_can_delete_may_change_as_the_Website_or_Services_change._When_you_delete_Personal_Information_however_we_may_maintain_a_copy_of_the_unrevised_Personal_Inf" data-name="You are able to delete certain Personal Information we have about you. The Personal Information you can delete may change as the Website or Services change. When you delete Personal Information, however, we may maintain a copy of the unrevised Personal Inf" transform="translate(141 1537)" fill="#0f0f0f" font-size="20" font-family="Rubik-Regular, Rubik"><tspan x="0" y="19">You are able to delete certain Personal Information we have about you. The Personal Information you can delete may change as the Website or Services change. When you delete </tspan><tspan x="0" y="59">Personal Information, however, we may maintain a copy of the unrevised Personal Information in our records for the duration necessary to comply with our obligations to our </tspan><tspan x="0" y="99">affiliates and partners, and for the purposes described below. If you would like to delete your Personal Information or permanently delete your account, you can do so by </tspan><tspan x="0" y="139">contacting us.</tspan></text>
    <text id="We_will_retain_and_use_your_Personal_Information_for_the_period_necessary_to_comply_with_our_legal_obligations_resolve_disputes_and_enforce_our_agreements_unless_a_longer_retention_period_is_required_or_permitted_by_law._We_may_use_any_aggregated_data_de" data-name="We will retain and use your Personal Information for the period necessary to comply with our legal obligations, resolve disputes, and enforce our agreements unless a longer retention period is required or permitted by law. We may use any aggregated data de" transform="translate(141 1831)" fill="#0f0f0f" font-size="20" font-family="Rubik-Regular, Rubik"><tspan x="0" y="19">We will retain and use your Personal Information for the period necessary to comply with our legal obligations, resolve disputes, and enforce our agreements unless a longer </tspan><tspan x="0" y="59">retention period is required or permitted by law. We may use any aggregated data derived from or incorporating your Personal Information after you update or delete it, but not in </tspan><tspan x="0" y="99">a manner that would identify you personally. Once the retention period expires, Personal Information shall be deleted. Therefore, the right to access, the right to erasure, the right </tspan><tspan x="0" y="139">to rectification and the right to data portability cannot be enforced after the expiration of the retention period.</tspan></text>
    <text id="In_order_to_make_our_Website_and_Services_available_to_you_or_to_meet_a_legal_obligation_we_need_to_collect_and_use_certain_Personal_Information._If_you_do_not_provide_the_information_that_we_request_we_may_not_be_able_to_provide_you_with_the_requested_" data-name="In order to make our Website and Services available to you, or to meet a legal obligation, we need to collect and use certain Personal Information. If you do not provide the information that we request, we may not be able to provide you with the requested " transform="translate(141 2125)" fill="#0f0f0f" font-size="20" font-family="Rubik-Regular, Rubik"><tspan x="0" y="19">In order to make our Website and Services available to you, or to meet a legal obligation, we need to collect and use certain Personal Information. If you do not provide the </tspan><tspan x="0" y="59">information that we request, we may not be able to provide you with the requested products or services. Some of the information we collect is directly from you via our Website. </tspan><tspan x="0" y="99">However, we may also collect Personal Information about you from other sources. Any of the information we collect from you may be used for the following purposes:</tspan><tspan x="0" y="139"></tspan><tspan x="0" y="179">Create and manage user accounts</tspan><tspan x="0" y="219">Send administrative information</tspan><tspan x="0" y="259">Request user feedback</tspan><tspan x="0" y="299">Improve user experience</tspan><tspan x="0" y="339">Enforce terms and conditions and policies</tspan><tspan x="0" y="379">Protect from abuse and malicious users</tspan><tspan x="0" y="419">Respond to legal requests and prevent harm</tspan><tspan x="0" y="459">Run and operate our Website and Services</tspan><tspan x="0" y="499"></tspan><tspan x="0" y="539">Processing your Personal Information depends on how you interact with our Website, where you are located in the world and if one of the following applies: (i) You have given </tspan><tspan x="0" y="579">your consent for one or more specific purposes. This, however, does not apply, whenever the processing of Personal Information is subject to California Consumer Privacy Act or </tspan><tspan x="0" y="619">European data protection law; (ii) Provision of information is necessary for the performance of an agreement with you and/or for any pre-contractual obligations thereof; (iii) </tspan><tspan x="0" y="659">Processing is necessary for compliance with a legal obligation to which you are subject; (iv) Processing is related to a task that is carried out in the public interest or in the </tspan><tspan x="0" y="699">exercise of official authority vested in us; (v) Processing is necessary for the purposes of the legitimate interests pursued by us or by a third party.</tspan><tspan x="0" y="739"></tspan><tspan x="0" y="779">Note that under some legislations we may be allowed to process information until you object to such processing (by opting out), without having to rely on consent or any other of </tspan><tspan x="0" y="819">the following legal bases below. In any case, we will be happy to clarify the specific legal basis that applies to the processing, and in particular whether the provision of Personal </tspan><tspan x="0" y="859">Information is a statutory or contractual requirement, or a requirement necessary to enter into a contract.</tspan></text>
    <text id="Depending_on_your_location_data_transfers_may_involve_transferring_and_storing_your_information_in_a_country_other_than_your_own._You_are_entitled_to_learn_about_the_legal_basis_of_information_transfers_to_a_country_outside_the_European_Union_or_to_any_in" data-name="Depending on your location, data transfers may involve transferring and storing your information in a country other than your own. You are entitled to learn about the legal basis of information transfers to a country outside the European Union or to any in" transform="translate(141 3139)" fill="#0f0f0f" font-size="20" font-family="Rubik-Regular, Rubik"><tspan x="0" y="19">Depending on your location, data transfers may involve transferring and storing your information in a country other than your own. You are entitled to learn about the legal basis </tspan><tspan x="0" y="59">of information transfers to a country outside the European Union or to any international organization governed by public international law or set up by two or more countries, </tspan><tspan x="0" y="99">such as the UN, and about the security measures taken by us to safeguard your information.</tspan></text>
    <text id="You_may_exercise_certain_rights_regarding_your_information_processed_by_us._In_particular_you_have_the_right_to_do_the_following:_i_you_have_the_right_to_withdraw_consent_where_you_have_previously_given_your_consent_to_the_processing_of_your_information" data-name="You may exercise certain rights regarding your information processed by us. In particular, you have the right to do the following: (i) you have the right to withdraw consent where you have previously given your consent to the processing of your information" transform="translate(141 3393)" fill="#0f0f0f" font-size="20" font-family="Rubik-Regular, Rubik"><tspan x="0" y="19">You may exercise certain rights regarding your information processed by us. In particular, you have the right to do the following: (i) you have the right to withdraw consent where </tspan><tspan x="0" y="59">you have previously given your consent to the processing of your information; (ii) you have the right to object to the processing of your information if the processing is carried </tspan><tspan x="0" y="99">out on a legal basis other than consent; (iii) you have the right to learn if information is being processed by us, obtain disclosure regarding certain aspects of the processing and </tspan><tspan x="0" y="139">obtain a copy of the information undergoing processing; (iv) you have the right to verify the accuracy of your information and ask for it to be updated or corrected; (v) you have </tspan><tspan x="0" y="179">the right, under certain circumstances, to restrict the processing of your information, in which case, we will not process your information for any purpose other than storing it; </tspan><tspan x="0" y="219">(vi) you have the right, under certain circumstances, to obtain the erasure of your Personal Information from us; (vii) you have the right to receive your information in a </tspan><tspan x="0" y="259">structured, commonly used and machine readable format and, if technically feasible, to have it transmitted to another controller without any hindrance. This provision is </tspan><tspan x="0" y="299">applicable provided that your information is processed by automated means and that the processing is based on your consent, on a contract which you are part of or on pre-</tspan><tspan x="0" y="339">contractual obligations thereof.</tspan></text>
    <text id="Where_Personal_Information_is_processed_for_the_public_interest_in_the_exercise_of_an_official_authority_vested_in_us_or_for_the_purposes_of_the_legitimate_interests_pursued_by_us_you_may_object_to_such_processing_by_providing_a_ground_related_to_your_pa" data-name="Where Personal Information is processed for the public interest, in the exercise of an official authority vested in us or for the purposes of the legitimate interests pursued by us, you may object to such processing by providing a ground related to your pa" transform="translate(141 3887)" fill="#0f0f0f" font-size="20" font-family="Rubik-Regular, Rubik"><tspan x="0" y="19">Where Personal Information is processed for the public interest, in the exercise of an official authority vested in us or for the purposes of the legitimate interests pursued by us, </tspan><tspan x="0" y="59">you may object to such processing by providing a ground related to your particular situation to justify the objection. You must know that, however, should your Personal </tspan><tspan x="0" y="99">Information be processed for direct marketing purposes, you can object to that processing at any time without providing any justification. To learn, whether we are processing </tspan><tspan x="0" y="139">Personal Information for direct marketing purposes, you may refer to the relevant sections of this document.</tspan></text>
    <text id="Any_requests_to_exercise_User_rights_can_be_directed_to_the_Owner_through_the_contact_details_provided_in_this_document._These_requests_can_be_exercised_free_of_charge_and_will_be_addressed_by_the_Owner_as_early_as_possible." data-name="Any requests to exercise User rights can be directed to the Owner through the contact details provided in this document. These requests can be exercised free of charge and will be addressed by the Owner as early as possible." transform="translate(141 4181)" fill="#0f0f0f" font-size="20" font-family="Rubik-Regular, Rubik"><tspan x="0" y="19">Any requests to exercise User rights can be directed to the Owner through the contact details provided in this document. These requests can be exercised free of charge and will </tspan><tspan x="0" y="59">be addressed by the Owner as early as possible.</tspan></text>
    <text id="In_addition_to_the_rights_as_explained_in_this_Privacy_Policy_California_residents_who_provide_Personal_Information_as_defined_in_the_statute_to_obtain_products_or_services_for_personal_family_or_household_use_are_entitled_to_request_and_obtain_from_u" data-name="In addition to the rights as explained in this Privacy Policy, California residents who provide Personal Information (as defined in the statute) to obtain products or services for personal, family, or household use are entitled to request and obtain from u" transform="translate(141 4395)" fill="#0f0f0f" font-size="20" font-family="Rubik-Regular, Rubik"><tspan x="0" y="19">In addition to the rights as explained in this Privacy Policy, California residents who provide Personal Information (as defined in the statute) to obtain products or services for </tspan><tspan x="0" y="59">personal, family, or household use are entitled to request and obtain from us, once a calendar year, information about the Personal Information we shared, if any, with other </tspan><tspan x="0" y="99">businesses for marketing uses. If applicable, this information would include the categories of Personal Information and the names and addresses of those businesses with which </tspan><tspan x="0" y="139">we shared such personal information for the immediately prior calendar year (e.g., requests made in the current year will receive information about the prior year). To obtain this </tspan><tspan x="0" y="179">information please contact us.</tspan></text>
    <text id="We_offer_electronic_newsletters_to_which_you_may_voluntarily_subscribe_at_any_time._We_are_committed_to_keeping_your_e-mail_address_confidential_and_will_not_disclose_your_email_address_to_any_third_parties_except_as_allowed_in_the_information_use_and_proc" data-name="We offer electronic newsletters to which you may voluntarily subscribe at any time. We are committed to keeping your e-mail address confidential and will not disclose your email address to any third parties except as allowed in the information use and proc" transform="translate(141 4729)" fill="#0f0f0f" font-size="20" font-family="Rubik-Regular, Rubik"><tspan x="0" y="19">We offer electronic newsletters to which you may voluntarily subscribe at any time. We are committed to keeping your e-mail address confidential and will not disclose your email </tspan><tspan x="0" y="59">address to any third parties except as allowed in the information use and processing section or for the purposes of utilizing a third-party provider to send such emails. We will </tspan><tspan x="0" y="99">maintain the information sent via e-mail in accordance with applicable laws and regulations.</tspan><tspan x="0" y="139"></tspan><tspan x="0" y="179">In compliance with the CAN-SPAM Act, all e-mails sent from us will clearly state who the e-mail is from and provide clear information on how to contact the sender. You may </tspan><tspan x="0" y="219">choose to stop receiving our newsletter or marketing emails by following the unsubscribe instructions included in these emails or by contacting us. However, you will continue to </tspan><tspan x="0" y="259">receive essential transactional emails.</tspan></text>
    <text id="The_Website_uses_cookies_to_help_personalize_your_online_experience._A_cookie_is_a_text_file_that_is_placed_on_your_hard_disk_by_a_web_page_server._Cookies_cannot_be_used_to_run_programs_or_deliver_viruses_to_your_computer._Cookies_are_uniquely_assigned_" data-name="The Website uses &quot;cookies&quot; to help personalize your online experience. A cookie is a text file that is placed on your hard disk by a web page server. Cookies cannot be used to run programs or deliver viruses to your computer. Cookies are uniquely assigned " transform="translate(141 5143)" fill="#0f0f0f" font-size="20" font-family="Rubik-Regular, Rubik"><tspan x="0" y="19">The Website uses &quot;cookies&quot; to help personalize your online experience. A cookie is a text file that is placed on your hard disk by a web page server. Cookies cannot be used to run </tspan><tspan x="0" y="59">programs or deliver viruses to your computer. Cookies are uniquely assigned to you, and can only be read by a web server in the domain that issued the cookie to you.</tspan><tspan x="0" y="99"></tspan><tspan x="0" y="139">We may use cookies to collect, store, and track information for statistical purposes to operate our Website and Services. You have the ability to accept or decline cookies. Most </tspan><tspan x="0" y="179">web browsers automatically accept cookies, but you can usually modify your browser setting to decline cookies if you prefer. If you choose to decline cookies, you may not be </tspan><tspan x="0" y="219">able to fully experience the features of the Website and Services. To learn more about cookies and how to manage them, visit </tspan><tspan y="219" fill="#0b8fff">internetcookies.org</tspan></text>
    <text id="Some_browsers_incorporate_a_Do_Not_Track_feature_that_signals_to_websites_you_visit_that_you_do_not_want_to_have_your_online_activity_tracked._Tracking_is_not_the_same_as_using_or_collecting_information_in_connection_with_a_website._For_these_purposes_tra" data-name="Some browsers incorporate a Do Not Track feature that signals to websites you visit that you do not want to have your online activity tracked. Tracking is not the same as using or collecting information in connection with a website. For these purposes, tra" transform="translate(141 5517)" fill="#0f0f0f" font-size="20" font-family="Rubik-Regular, Rubik"><tspan x="0" y="19">Some browsers incorporate a Do Not Track feature that signals to websites you visit that you do not want to have your online activity tracked. Tracking is not the same as using or </tspan><tspan x="0" y="59">collecting information in connection with a website. For these purposes, tracking refers to collecting personally identifiable information from consumers who use or visit a </tspan><tspan x="0" y="99">website or online service as they move across different websites over time. How browsers communicate the Do Not Track signal is not yet uniform. As a result, this Website is not </tspan><tspan x="0" y="139">yet set up to interpret or respond to Do Not Track signals communicated by your browser. Even so, as described in more detail throughout this Policy, we limit our use and </tspan><tspan x="0" y="179">collection of your personal information.</tspan></text>
    <text id="Our_Website_contains_links_to_other_websites_that_are_not_owned_or_controlled_by_us._Please_be_aware_that_we_are_not_responsible_for_the_privacy_practices_of_such_other_websites_or_third-parties._We_encourage_you_to_be_aware_when_you_leave_our_Website_and_" data-name="Our Website contains links to other websites that are not owned or controlled by us. Please be aware that we are not responsible for the privacy practices of such other websites or third-parties. We encourage you to be aware when you leave our Website and " transform="translate(141 5851)" fill="#0f0f0f" font-size="20" font-family="Rubik-Regular, Rubik"><tspan x="0" y="19">Our Website contains links to other websites that are not owned or controlled by us. Please be aware that we are not responsible for the privacy practices of such other websites </tspan><tspan x="0" y="59">or third-parties. We encourage you to be aware when you leave our Website and to read the privacy statements of each and every website that may collect Personal Information.</tspan></text>
    <text id="We_secure_information_you_provide_on_computer_servers_in_a_controlled_secure_environment_protected_from_unauthorized_access_use_or_disclosure._We_maintain_reasonable_administrative_technical_and_physical_safeguards_in_an_effort_to_protect_against_una" data-name="We secure information you provide on computer servers in a controlled, secure environment, protected from unauthorized access, use, or disclosure. We maintain reasonable administrative, technical, and physical safeguards in an effort to protect against una" transform="translate(141 6065)" fill="#0f0f0f" font-size="20" font-family="Rubik-Regular, Rubik"><tspan x="0" y="19">We secure information you provide on computer servers in a controlled, secure environment, protected from unauthorized access, use, or disclosure. We maintain reasonable </tspan><tspan x="0" y="59">administrative, technical, and physical safeguards in an effort to protect against unauthorized access, use, modification, and disclosure of Personal Information in its control and </tspan><tspan x="0" y="99">custody. However, no data transmission over the Internet or wireless network can be guaranteed. Therefore, while we strive to protect your Personal Information, you </tspan><tspan x="0" y="139">acknowledge that (i) there are security and privacy limitations of the Internet which are beyond our control; (ii) the security, integrity, and privacy of any and all information and </tspan><tspan x="0" y="179">data exchanged between you and our Website cannot be guaranteed; and (iii) any such information and data may be viewed or tampered with in transit by a third-party, despite </tspan><tspan x="0" y="219">best efforts.</tspan></text>
    <text id="In_the_event_we_become_aware_that_the_security_of_the_Website_has_been_compromised_or_users_Personal_Information_has_been_disclosed_to_unrelated_third_parties_as_a_result_of_external_activity_including_but_not_limited_to_security_attacks_or_fraud_we_re" data-name="In the event we become aware that the security of the Website has been compromised or users Personal Information has been disclosed to unrelated third parties as a result of external activity, including, but not limited to, security attacks or fraud, we re" transform="translate(141 6439)" fill="#0f0f0f" font-size="20" font-family="Rubik-Regular, Rubik"><tspan x="0" y="19">In the event we become aware that the security of the Website has been compromised or users Personal Information has been disclosed to unrelated third parties as a result of </tspan><tspan x="0" y="59">external activity, including, but not limited to, security attacks or fraud, we reserve the right to take reasonably appropriate measures, including, but not limited to, investigation </tspan><tspan x="0" y="99">and reporting, as well as notification to and cooperation with law enforcement authorities. In the event of a data breach, we will make reasonable efforts to notify affected </tspan><tspan x="0" y="139">individuals if we believe that there is a reasonable risk of harm to the user as a result of the breach or if notice is otherwise required by law. When we do, we will post a notice on </tspan><tspan x="0" y="179">the Website, send you an email.</tspan></text>
    <text id="We_will_disclose_any_information_we_collect_use_or_receive_if_required_or_permitted_by_law_such_as_to_comply_with_a_subpoena_or_similar_legal_process_and_when_we_believe_in_good_faith_that_disclosure_is_necessary_to_protect_our_rights_protect_your_saf" data-name="We will disclose any information we collect, use or receive if required or permitted by law, such as to comply with a subpoena, or similar legal process, and when we believe in good faith that disclosure is necessary to protect our rights, protect your saf" transform="translate(141 6773)" fill="#0f0f0f" font-size="20" font-family="Rubik-Regular, Rubik"><tspan x="0" y="19">We will disclose any information we collect, use or receive if required or permitted by law, such as to comply with a subpoena, or similar legal process, and when we believe in </tspan><tspan x="0" y="59">good faith that disclosure is necessary to protect our rights, protect your safety or the safety of others, investigate fraud, or respond to a government request.</tspan></text>
    <text id="We_may_update_this_Privacy_Policy_from_time_to_time_in_our_discretion_and_will_notify_you_of_any_material_changes_to_the_way_in_which_we_treat_Personal_Information._When_changes_are_made_we_will_revise_the_updated_date_at_the_bottom_of_this_page._We_may_a" data-name="We may update this Privacy Policy from time to time in our discretion and will notify you of any material changes to the way in which we treat Personal Information. When changes are made, we will revise the updated date at the bottom of this page. We may a" transform="translate(141 6987)" fill="#0f0f0f" font-size="20" font-family="Rubik-Regular, Rubik"><tspan x="0" y="19">We may update this Privacy Policy from time to time in our discretion and will notify you of any material changes to the way in which we treat Personal Information. When </tspan><tspan x="0" y="59">changes are made, we will revise the updated date at the bottom of this page. We may also provide notice to you in other ways in our discretion, such as through contact </tspan><tspan x="0" y="99">information you have provided. Any updated version of this Privacy Policy will be effective immediately upon the posting of the revised Privacy Policy unless otherwise specified. </tspan><tspan x="0" y="139">Your continued use of the Website or Services after the effective date of the revised Privacy Policy (or such other act specified at that time) will constitute your consent to those </tspan><tspan x="0" y="179">changes. However, we will not, without your consent, use your Personal Data in a manner materially different than what was stated at the time your Personal Data was collected. </tspan><tspan x="0" y="219">Policy was created with </tspan><tspan y="219" fill="#0b8fff">WebsitePolicies</tspan><tspan y="219">.</tspan></text>
    <text id="You_acknowledge_that_you_have_read_this_Policy_and_agree_to_all_its_terms_and_conditions._By_using_the_Website_or_its_Services_you_agree_to_be_bound_by_this_Policy._If_you_do_not_agree_to_abide_by_the_terms_of_this_Policy_you_are_not_authorized_to_use_or_" data-name="You acknowledge that you have read this Policy and agree to all its terms and conditions. By using the Website or its Services you agree to be bound by this Policy. If you do not agree to abide by the terms of this Policy, you are not authorized to use or " transform="translate(141 7361)" fill="#0f0f0f" font-size="20" font-family="Rubik-Regular, Rubik"><tspan x="0" y="19">You acknowledge that you have read this Policy and agree to all its terms and conditions. By using the Website or its Services you agree to be bound by this Policy. If you do not </tspan><tspan x="0" y="59">agree to abide by the terms of this Policy, you are not authorized to use or access the Website and its Services.</tspan></text>
    <text id="If_you_would_like_to_contact_us_to_understand_more_about_this_Policy_or_wish_to_contact_us_concerning_any_matter_relating_to_individual_rights_and_your_Personal_Information_you_may_send_an_email_to_info_expeditionsconnect.com_This_document_was_last_updat" data-name="If you would like to contact us to understand more about this Policy or wish to contact us concerning any matter relating to individual rights and your Personal Information, you may send an email to info@expeditionsconnect.com

This document was last updat" transform="translate(141 7585)" fill="#0f0f0f" font-size="20" font-family="Rubik-Regular, Rubik"><tspan x="0" y="19">If you would like to contact us to understand more about this Policy or wish to contact us concerning any matter relating to individual rights and your Personal Information, you </tspan><tspan x="0" y="59">may send an email to info@expeditionsconnect.com</tspan><tspan x="0" y="99"></tspan><tspan x="0" y="139">This document was last updated on April 26, 2020</tspan></text>
    <line id="Line_156" data-name="Line 156" x2="30" transform="translate(141 489.5)" fill="none" stroke="#ffbc00" stroke-width="5"/>
    <line id="Line_157" data-name="Line 157" x2="30" transform="translate(141 863.5)" fill="none" stroke="#ffbc00" stroke-width="5"/>
    <line id="Line_158" data-name="Line 158" x2="30" transform="translate(141 1437.5)" fill="none" stroke="#ffbc00" stroke-width="5"/>
    <line id="Line_159" data-name="Line 159" x2="30" transform="translate(141 1731.5)" fill="none" stroke="#ffbc00" stroke-width="5"/>
    <line id="Line_160" data-name="Line 160" x2="30" transform="translate(141 2025.5)" fill="none" stroke="#ffbc00" stroke-width="5"/>
    <line id="Line_163" data-name="Line 163" x2="30" transform="translate(141 3039.5)" fill="none" stroke="#ffbc00" stroke-width="5"/>
    <line id="Line_164" data-name="Line 164" x2="30" transform="translate(141 3293.5)" fill="none" stroke="#ffbc00" stroke-width="5"/>
    <line id="Line_166" data-name="Line 166" x2="30" transform="translate(141 3787.5)" fill="none" stroke="#ffbc00" stroke-width="5"/>
    <line id="Line_168" data-name="Line 168" x2="30" transform="translate(141 4081.5)" fill="none" stroke="#ffbc00" stroke-width="5"/>
    <line id="Line_169" data-name="Line 169" x2="30" transform="translate(141 4295.5)" fill="none" stroke="#ffbc00" stroke-width="5"/>
    <line id="Line_170" data-name="Line 170" x2="30" transform="translate(141 4629.5)" fill="none" stroke="#ffbc00" stroke-width="5"/>
    <line id="Line_171" data-name="Line 171" x2="30" transform="translate(141 5043.5)" fill="none" stroke="#ffbc00" stroke-width="5"/>
    <line id="Line_172" data-name="Line 172" x2="30" transform="translate(141 5417.5)" fill="none" stroke="#ffbc00" stroke-width="5"/>
    <line id="Line_173" data-name="Line 173" x2="30" transform="translate(141 5751.5)" fill="none" stroke="#ffbc00" stroke-width="5"/>
    <line id="Line_174" data-name="Line 174" x2="30" transform="translate(141 5965.5)" fill="none" stroke="#ffbc00" stroke-width="5"/>
    <line id="Line_175" data-name="Line 175" x2="30" transform="translate(141 6339.5)" fill="none" stroke="#ffbc00" stroke-width="5"/>
    <line id="Line_176" data-name="Line 176" x2="30" transform="translate(141 6673.5)" fill="none" stroke="#ffbc00" stroke-width="5"/>
    <line id="Line_177" data-name="Line 177" x2="30" transform="translate(141 6887.5)" fill="none" stroke="#ffbc00" stroke-width="5"/>
    <line id="Line_178" data-name="Line 178" x2="30" transform="translate(141 7261.5)" fill="none" stroke="#ffbc00" stroke-width="5"/>
    <line id="Line_167" data-name="Line 167" x2="30" transform="translate(141 7475.5)" fill="none" stroke="#ffbc00" stroke-width="5"/>
  </g>
</svg>
