<svg id="learningWithExperts_feature2" xmlns="http://www.w3.org/2000/svg" xmlns:xlink="http://www.w3.org/1999/xlink" width="38" height="39" viewBox="0 0 38 39">
  <defs>
    <clipPath id="clip-path">
      <rect id="Rectangle_27" data-name="Rectangle 27" width="38" height="39" fill="none"/>
    </clipPath>
  </defs>
  <g id="Group_10" data-name="Group 10">
    <g id="Group_9" data-name="Group 9" clip-path="url(#clip-path)">
      <path id="Path_112" data-name="Path 112" d="M36.132,39H32.4a1.878,1.878,0,0,1-1.868-1.887V25.161A1.878,1.878,0,0,1,32.4,23.274h3.737A1.878,1.878,0,0,1,38,25.161V37.113A1.878,1.878,0,0,1,36.132,39M17.449,39H13.712a1.878,1.878,0,0,1-1.868-1.887V21.387A1.878,1.878,0,0,1,13.712,19.5h3.737a1.878,1.878,0,0,1,1.868,1.887V37.113A1.878,1.878,0,0,1,17.449,39m9.964,0H22.431a1.878,1.878,0,0,1-1.868-1.887V17.627a1.878,1.878,0,0,1,1.868-1.887h4.982a1.878,1.878,0,0,1,1.868,1.887V37.113A1.878,1.878,0,0,1,27.413,39M17.449,22.016a.626.626,0,0,0-.623-.629H14.335a.629.629,0,0,0,0,1.258h2.491a.626.626,0,0,0,.623-.629m0,14.468a.626.626,0,0,0-.623-.629H14.335a.629.629,0,0,0,0,1.258h2.491a.626.626,0,0,0,.623-.629M16.2,33.968V24.532a.623.623,0,1,0-1.246,0v9.436a.623.623,0,1,0,1.246,0M27.386,18.241a.626.626,0,0,0-.623-.629H23.054a.629.629,0,0,0,0,1.258h3.709a.626.626,0,0,0,.623-.629m0,18.258a.626.626,0,0,0-.623-.629H23.054a.629.629,0,0,0,0,1.258h3.709a.626.626,0,0,0,.623-.629m-.6-2.531V20.758a.623.623,0,1,0-1.246,0v13.21a.623.623,0,1,0,1.246,0m-2.491,0V20.758a.623.623,0,1,0-1.246,0v13.21a.623.623,0,1,0,1.246,0M36.132,25.79a.626.626,0,0,0-.623-.629H33.018a.629.629,0,0,0,0,1.258h2.491a.626.626,0,0,0,.623-.629m0,10.694a.626.626,0,0,0-.623-.629H33.018a.629.629,0,0,0,0,1.258h2.491a.626.626,0,0,0,.623-.629m-1.246-2.516V28.306a.623.623,0,1,0-1.246,0v5.661a.623.623,0,1,0,1.246,0" fill="#ffbc00"/>
      <path id="Path_113" data-name="Path 113" d="M30.527,29.779H29.242V13.159l.835.739a.619.619,0,0,0,.88-.058.634.634,0,0,0-.057-.889L16.77.464a1.86,1.86,0,0,0-2.458,0L.225,12.866a.633.633,0,0,0-.081.886.619.619,0,0,0,.877.082l.023-.02.836-.736v16.7H.634a.629.629,0,0,0,0,1.258H30.527a.629.629,0,0,0,0-1.258m-27.4-17.8L15.13,1.413a.618.618,0,0,1,.82,0L28,12.058V29.779h-4.32V26.634a8.181,8.181,0,0,0-5.549-7.757,4.432,4.432,0,0,0,.991-6.146,4.331,4.331,0,0,0-6.085-1,4.432,4.432,0,0,0-.991,6.146,4.383,4.383,0,0,0,.991,1,8.181,8.181,0,0,0-5.549,7.757v3.145H3.125Zm9.341,3.33a3.114,3.114,0,1,1,3.114,3.145,3.13,3.13,0,0,1-3.114-3.145m9.964,14.468H8.73V26.634a6.851,6.851,0,1,1,13.7,0Z" fill="#111"/>
    </g>
  </g>
</svg>
